
G21
G90
G94
F10.00
G00 Z0.5000
M03
G4 P1
G00 X-2.5700Y8.5050
G01 Z-2.0000
G01 X-2.5700Y-2.1400
G01 X12.5200Y-2.1400
G00 Z0.5000
G00 X13.7200Y-2.1400
G01 Z-2.0000
G01 X28.8100Y-2.1400
G01 X28.8100Y8.5050
G00 Z0.5000
G00 X28.8100Y9.7050
G01 Z-2.0000
G01 X28.8100Y20.3500
G01 X13.7200Y20.3500
G00 Z0.5000
G00 X12.5200Y20.3500
G01 Z-2.0000
G01 X-2.5700Y20.3500
G01 X-2.5700Y9.7050
G00 Z0.5000
G00 Z0.5000
G00 X0Y0
M05
