
G21
G90
G94
F50.00
G00 Z0.5000
M03
G4 P1
G00 X0.8493Y8.4700
G01 Z-2.0000
G01 Z0
G00 Z0.5000
G00 X0.8493Y5.9300
G01 Z-2.0000
G01 Z0
G00 Z0.5000
G00 X0.8493Y3.3900
G01 Z-2.0000
G01 Z0
G00 Z0.5000
G00 X0.8493Y0.8500
G01 Z-2.0000
G01 Z0
G00 Z0.5000
G00 X6.4169Y15.3712
G01 Z-2.0000
G01 Z0
G00 Z0.5000
G00 X6.5439Y1.3631
G01 Z-2.0000
G01 Z0
G00 Z0.5000
G00 X24.8319Y15.3712
G01 Z-2.0000
G01 Z0
G00 Z0.5000
G00 X24.8319Y1.3631
G01 Z-2.0000
G01 Z0
G00 Z0.5000
G00 X0.0000Y0.0000
M05
