
G20
G90
G94
F3.00
G00 Z0.1000
M03
G4 P1
G00 X0.2295Y1.9695
G01 Z-0.0709
G01 Z0
G00 Z0.1000
G00 X0.2295Y0.1295
G01 Z-0.0709
G01 Z0
G00 Z0.1000
G00 X0.3295Y1.9695
G01 Z-0.0709
G01 Z0
G00 Z0.1000
G00 X0.3295Y0.1295
G01 Z-0.0709
G01 Z0
G00 Z0.1000
G00 X0.4295Y1.9695
G01 Z-0.0709
G01 Z0
G00 Z0.1000
G00 X0.4295Y0.1295
G01 Z-0.0709
G01 Z0
G00 Z0.1000
G00 X0.5295Y1.9695
G01 Z-0.0709
G01 Z0
G00 Z0.1000
G00 X0.5295Y0.1295
G01 Z-0.0709
G01 Z0
G00 Z0.1000
G00 X0.1495Y0.7395
G01 Z-0.0709
G01 Z0
G00 Z0.1000
G00 X0.2495Y0.7395
G01 Z-0.0709
G01 Z0
G00 Z0.1000
G00 X0.3495Y0.7395
G01 Z-0.0709
G01 Z0
G00 Z0.1000
G00 X0.4495Y0.7395
G01 Z-0.0709
G01 Z0
G00 Z0.1000
G00 X0.7495Y1.1395
G01 Z-0.0709
G01 Z0
G00 Z0.1000
G00 X0.7495Y1.0395
G01 Z-0.0709
G01 Z0
G00 Z0.1000
G00 X0.0000Y0.0000
M05
